{
    "count": 855317,
    "next": "https://api.rawg.io/api/games?key=7564daa0a89d4f2d881e82b0cc31fdaf&page=2",
    "previous": null,
    "results": [
        {
            "id": 3498,
            "slug": "grand-theft-auto-v",
            "name": "Grand Theft Auto V",
            "released": "2013-09-17",
            "tba": false,
            "background_image": "https://media.rawg.io/media/games/456/456dea5e1c7e3cd07060c14e96612001.jpg",
            "rating": 4.47,
            "rating_top": 5,
            "ratings": [
                {
                    "id": 5,
                    "title": "exceptional",
                    "count": 3644,
                    "percent": 59.03
                },
                {
                    "id": 4,
                    "title": "recommended",
                    "count": 2028,
                    "percent": 32.85
                },
                {
                    "id": 3,
                    "title": "meh",
                    "count": 388,
                    "percent": 6.29
                },
                {
                    "id": 1,
                    "title": "skip",
                    "count": 113,
                    "percent": 1.83
                }
            ],
            "ratings_count": 6093,
            "reviews_text_count": 44,
            "added": 18669,
            "added_by_status": {
                "yet": 473,
                "owned": 10856,
                "beaten": 5176,
                "toplay": 548,
                "dropped": 947,
                "playing": 669
            },
            "metacritic": 91,
            "playtime": 73,
            "suggestions_count": 413,
            "updated": "2023-01-18T09:18:26",
            "user_game": null,
            "reviews_count": 6173,
            "saturated_color": "0f0f0f",
            "dominant_color": "0f0f0f",
            "platforms": [
                {
                    "platform": {
                        "id": 187,
                        "name": "PlayStation 5",
                        "slug": "playstation5",
                        "image": null,
                        "year_end": null,
                        "year_start": 2020,
                        "games_count": 766,
                        "image_background": "https://media.rawg.io/media/games/26d/26d4437715bee60138dab4a7c8c59c92.jpg"
                    },
                    "released_at": "2013-09-17",
                    "requirements_en": null,
                    "requirements_ru": null
                },
                {
                    "platform": {
                        "id": 186,
                        "name": "Xbox Series S/X",
                        "slug": "xbox-series-x",
                        "image": null,
                        "year_end": null,
                        "year_start": 2020,
                        "games_count": 690,
                        "image_background": "https://media.rawg.io/media/games/082/082365507ff04d456c700157072d35db.jpg"
                    },
                    "released_at": "2013-09-17",
                    "requirements_en": null,
                    "requirements_ru": null
                },
                {
                    "platform": {
                        "id": 18,
                        "name": "PlayStation 4",
                        "slug": "playstation4",
                        "image": null,
                        "year_end": null,
                        "year_start": null,
                        "games_count": 6540,
                        "image_background": "https://media.rawg.io/media/games/b72/b7233d5d5b1e75e86bb860ccc7aeca85.jpg"
                    },
                    "released_at": "2013-09-17",
                    "requirements_en": null,
                    "requirements_ru": null
                },
                {
                    "platform": {
                        "id": 4,
                        "name": "PC",
                        "slug": "pc",
                        "image": null,
                        "year_end": null,
                        "year_start": null,
                        "games_count": 512367,
                        "image_background": "https://media.rawg.io/media/games/4be/4be6a6ad0364751a96229c56bf69be59.jpg"
                    },
                    "released_at": "2013-09-17",
                    "requirements_en": {
                        "minimum": "Minimum:OS: Windows 10 64 Bit, Windows 8.1 64 Bit, Windows 8 64 Bit, Windows 7 64 Bit Service Pack 1, Windows Vista 64 Bit Service Pack 2* (*NVIDIA video card recommended if running Vista OS)Processor: Intel Core 2 Quad CPU Q6600 @ 2.40GHz (4 CPUs) / AMD Phenom 9850 Quad-Core Processor (4 CPUs) @ 2.5GHzMemory: 4 GB RAMGraphics: NVIDIA 9800 GT 1GB / AMD HD 4870 1GB (DX 10, 10.1, 11)Storage: 72 GB available spaceSound Card: 100% DirectX 10 compatibleAdditional Notes: Over time downloadable content and programming changes will change the system requirements for this game.  Please refer to your hardware manufacturer and www.rockstargames.com/support for current compatibility information. Some system components such as mobile chipsets, integrated, and AGP graphics cards may be incompatible. Unlisted specifications may not be supported by publisher.     Other requirements:  Installation and online play requires log-in to Rockstar Games Social Club (13+) network; internet connection required for activation, online play, and periodic entitlement verification; software installations required including Rockstar Games Social Club platform, DirectX , Chromium, and Microsoft Visual C++ 2008 sp1 Redistributable Package, and authentication software that recognizes certain hardware attributes for entitlement, digital rights management, system, and other support purposes.     SINGLE USE SERIAL CODE REGISTRATION VIA INTERNET REQUIRED; REGISTRATION IS LIMITED TO ONE ROCKSTAR GAMES SOCIAL CLUB ACCOUNT (13+) PER SERIAL CODE; ONLY ONE PC LOG-IN ALLOWED PER SOCIAL CLUB ACCOUNT AT ANY TIME; SERIAL CODE(S) ARE NON-TRANSFERABLE ONCE USED; SOCIAL CLUB ACCOUNTS ARE NON-TRANSFERABLE.  Partner Requirements:  Please check the terms of service of this site before purchasing this software.",
                        "recommended": "Recommended:OS: Windows 10 64 Bit, Windows 8.1 64 Bit, Windows 8 64 Bit, Windows 7 64 Bit Service Pack 1Processor: Intel Core i5 3470 @ 3.2GHz (4 CPUs) / AMD X8 FX-8350 @ 4GHz (8 CPUs)Memory: 8 GB RAMGraphics: NVIDIA GTX 660 2GB / AMD HD 7870 2GBStorage: 72 GB available spaceSound Card: 100% DirectX 10 compatibleAdditional Notes:"
                    },
                    "requirements_ru": null
                },
                {
                    "platform": {
                        "id": 16,
                        "name": "PlayStation 3",
                        "slug": "playstation3",
                        "image": null,
                        "year_end": null,
                        "year_start": null,
                        "games_count": 3467,
                        "image_background": "https://media.rawg.io/media/games/fc1/fc1307a2774506b5bd65d7e8424664a7.jpg"
                    },
                    "released_at": "2013-09-17",
                    "requirements_en": null,
                    "requirements_ru": null
                },
                {
                    "platform": {
                        "id": 14,
                        "name": "Xbox 360",
                        "slug": "xbox360",
                        "image": null,
                        "year_end": null,
                        "year_start": null,
                        "games_count": 2772,
                        "image_background": "https://media.rawg.io/media/games/d69/d69810315bd7e226ea2d21f9156af629.jpg"
                    },
                    "released_at": "2013-09-17",
                    "requirements_en": null,
                    "requirements_ru": null
                },
                {
                    "platform": {
                        "id": 1,
                        "name": "Xbox One",
                        "slug": "xbox-one",
                        "image": null,
                        "year_end": null,
                        "year_start": null,
                        "games_count": 5461,
                        "image_background": "https://media.rawg.io/media/games/26d/26d4437715bee60138dab4a7c8c59c92.jpg"
                    },
                    "released_at": "2013-09-17",
                    "requirements_en": null,
                    "requirements_ru": null
                }
            ],
            "parent_platforms": [
                {
                    "platform": {
                        "id": 1,
                        "name": "PC",
                        "slug": "pc"
                    }
                },
                {
                    "platform": {
                        "id": 2,
                        "name": "PlayStation",
                        "slug": "playstation"
                    }
                },
                {
                    "platform": {
                        "id": 3,
                        "name": "Xbox",
                        "slug": "xbox"
                    }
                }
            ],
            "genres": [
                {
                    "id": 4,
                    "name": "Action",
                    "slug": "action",
                    "games_count": 170590,
                    "image_background": "https://media.rawg.io/media/games/26d/26d4437715bee60138dab4a7c8c59c92.jpg"
                },
                {
                    "id": 3,
                    "name": "Adventure",
                    "slug": "adventure",
                    "games_count": 130714,
                    "image_background": "https://media.rawg.io/media/games/960/960b601d9541cec776c5fa42a00bf6c4.jpg"
                }
            ],
            "stores": [
                {
                    "id": 290375,
                    "store": {
                        "id": 3,
                        "name": "PlayStation Store",
                        "slug": "playstation-store",
                        "domain": "store.playstation.com",
                        "games_count": 7786,
                        "image_background": "https://media.rawg.io/media/games/f87/f87457e8347484033cb34cde6101d08d.jpg"
                    }
                },
                {
                    "id": 438095,
                    "store": {
                        "id": 11,
                        "name": "Epic Games",
                        "slug": "epic-games",
                        "domain": "epicgames.com",
                        "games_count": 1190,
                        "image_background": "https://media.rawg.io/media/games/c80/c80bcf321da44d69b18a06c04d942662.jpg"
                    }
                },
                {
                    "id": 290376,
                    "store": {
                        "id": 1,
                        "name": "Steam",
                        "slug": "steam",
                        "domain": "store.steampowered.com",
                        "games_count": 70600,
                        "image_background": "https://media.rawg.io/media/games/26d/26d4437715bee60138dab4a7c8c59c92.jpg"
                    }
                },
                {
                    "id": 290377,
                    "store": {
                        "id": 7,
                        "name": "Xbox 360 Store",
                        "slug": "xbox360",
                        "domain": "marketplace.xbox.com",
                        "games_count": 1911,
                        "image_background": "https://media.rawg.io/media/games/120/1201a40e4364557b124392ee50317b99.jpg"
                    }
                },
                {
                    "id": 290378,
                    "store": {
                        "id": 2,
                        "name": "Xbox Store",
                        "slug": "xbox-store",
                        "domain": "microsoft.com",
                        "games_count": 4755,
                        "image_background": "https://media.rawg.io/media/games/4a0/4a0a1316102366260e6f38fd2a9cfdce.jpg"
                    }
                }
            ],
            "clip": null,
            "tags": [
                {
                    "id": 31,
                    "name": "Singleplayer",
                    "slug": "singleplayer",
                    "language": "eng",
                    "games_count": 197445,
                    "image_background": "https://media.rawg.io/media/games/b8c/b8c243eaa0fbac8115e0cdccac3f91dc.jpg"
                },
                {
                    "id": 40847,
                    "name": "Steam Achievements",
                    "slug": "steam-achievements",
                    "language": "eng",
                    "games_count": 28557,
                    "image_background": "https://media.rawg.io/media/games/4be/4be6a6ad0364751a96229c56bf69be59.jpg"
                },
                {
                    "id": 7,
                    "name": "Multiplayer",
                    "slug": "multiplayer",
                    "language": "eng",
                    "games_count": 34459,
                    "image_background": "https://media.rawg.io/media/games/34b/34b1f1850a1c06fd971bc6ab3ac0ce0e.jpg"
                },
                {
                    "id": 13,
                    "name": "Atmospheric",
                    "slug": "atmospheric",
                    "language": "eng",
                    "games_count": 27338,
                    "image_background": "https://media.rawg.io/media/games/328/3283617cb7d75d67257fc58339188742.jpg"
                },
                {
                    "id": 40836,
                    "name": "Full controller support",
                    "slug": "full-controller-support",
                    "language": "eng",
                    "games_count": 13411,
                    "image_background": "https://media.rawg.io/media/games/f46/f466571d536f2e3ea9e815ad17177501.jpg"
                },
                {
                    "id": 42,
                    "name": "Great Soundtrack",
                    "slug": "great-soundtrack",
                    "language": "eng",
                    "games_count": 3221,
                    "image_background": "https://media.rawg.io/media/games/4cf/4cfc6b7f1850590a4634b08bfab308ab.jpg"
                },
                {
                    "id": 24,
                    "name": "RPG",
                    "slug": "rpg",
                    "language": "eng",
                    "games_count": 16160,
                    "image_background": "https://media.rawg.io/media/games/d69/d69810315bd7e226ea2d21f9156af629.jpg"
                },
                {
                    "id": 18,
                    "name": "Co-op",
                    "slug": "co-op",
                    "language": "eng",
                    "games_count": 9377,
                    "image_background": "https://media.rawg.io/media/games/456/456dea5e1c7e3cd07060c14e96612001.jpg"
                },
                {
                    "id": 36,
                    "name": "Open World",
                    "slug": "open-world",
                    "language": "eng",
                    "games_count": 5908,
                    "image_background": "https://media.rawg.io/media/games/d82/d82990b9c67ba0d2d09d4e6fa88885a7.jpg"
                },
                {
                    "id": 411,
                    "name": "cooperative",
                    "slug": "cooperative",
                    "language": "eng",
                    "games_count": 3797,
                    "image_background": "https://media.rawg.io/media/games/4e0/4e0e7b6d6906a131307c94266e5c9a1c.jpg"
                },
                {
                    "id": 8,
                    "name": "First-Person",
                    "slug": "first-person",
                    "language": "eng",
                    "games_count": 27075,
                    "image_background": "https://media.rawg.io/media/games/b7b/b7b8381707152afc7d91f5d95de70e39.jpg"
                },
                {
                    "id": 149,
                    "name": "Third Person",
                    "slug": "third-person",
                    "language": "eng",
                    "games_count": 8686,
                    "image_background": "https://media.rawg.io/media/games/b45/b45575f34285f2c4479c9a5f719d972e.jpg"
                },
                {
                    "id": 4,
                    "name": "Funny",
                    "slug": "funny",
                    "language": "eng",
                    "games_count": 21813,
                    "image_background": "https://media.rawg.io/media/games/a3c/a3c529a12c896c0ef02db5b4741de2ba.jpg"
                },
                {
                    "id": 37,
                    "name": "Sandbox",
                    "slug": "sandbox",
                    "language": "eng",
                    "games_count": 5660,
                    "image_background": "https://media.rawg.io/media/games/d7d/d7d33daa1892e2468cd0263d5dfc957e.jpg"
                },
                {
                    "id": 123,
                    "name": "Comedy",
                    "slug": "comedy",
                    "language": "eng",
                    "games_count": 10378,
                    "image_background": "https://media.rawg.io/media/games/806/8060a7663364ac23e15480728938d6f3.jpg"
                },
                {
                    "id": 150,
                    "name": "Third-Person Shooter",
                    "slug": "third-person-shooter",
                    "language": "eng",
                    "games_count": 2730,
                    "image_background": "https://media.rawg.io/media/games/5c0/5c0dd63002cb23f804aab327d40ef119.jpg"
                },
                {
                    "id": 62,
                    "name": "Moddable",
                    "slug": "moddable",
                    "language": "eng",
                    "games_count": 753,
                    "image_background": "https://media.rawg.io/media/games/7cf/7cfc9220b401b7a300e409e539c9afd5.jpg"
                },
                {
                    "id": 144,
                    "name": "Crime",
                    "slug": "crime",
                    "language": "eng",
                    "games_count": 2445,
                    "image_background": "https://media.rawg.io/media/games/473/473bd9a5e9522629d6cb28b701fb836a.jpg"
                },
                {
                    "id": 62349,
                    "name": "vr mod",
                    "slug": "vr-mod",
                    "language": "eng",
                    "games_count": 17,
                    "image_background": "https://media.rawg.io/media/screenshots/1bb/1bb3f78f0fe43b5d5ca2f3da5b638840.jpg"
                }
            ],
            "esrb_rating": {
                "id": 4,
                "name": "Mature",
                "slug": "mature"
            },
            "short_screenshots": [
                {
                    "id": -1,
                    "image": "https://media.rawg.io/media/games/456/456dea5e1c7e3cd07060c14e96612001.jpg"
                },
                {
                    "id": 1827221,
                    "image": "https://media.rawg.io/media/screenshots/a7c/a7c43871a54bed6573a6a429451564ef.jpg"
                },
                {
                    "id": 1827222,
                    "image": "https://media.rawg.io/media/screenshots/cf4/cf4367daf6a1e33684bf19adb02d16d6.jpg"
                },
                {
                    "id": 1827223,
                    "image": "https://media.rawg.io/media/screenshots/f95/f9518b1d99210c0cae21fc09e95b4e31.jpg"
                },
                {
                    "id": 1827225,
                    "image": "https://media.rawg.io/media/screenshots/a5c/a5c95ea539c87d5f538763e16e18fb99.jpg"
                },
                {
                    "id": 1827226,
                    "image": "https://media.rawg.io/media/screenshots/a7e/a7e990bc574f4d34e03b5926361d1ee7.jpg"
                },
                {
                    "id": 1827227,
                    "image": "https://media.rawg.io/media/screenshots/592/592e2501d8734b802b2a34fee2df59fa.jpg"
                }
            ]
        },